mpirun -n 8 ./diffusion 1.0 2.0 1024  | grep 'I/O'; check
Time taken by sequential I/O: 0.029s.
Time taken by parallel MPI I/O: 0.085s.

mpirun -n 8 ./diffusion 1.0 2.0 1536  | grep 'I/O'; check
Time taken by sequential I/O: 0.063s.
Time taken by parallel MPI I/O: 0.075s.

mpirun -n 8 ./diffusion 1.0 2.0 2048  | grep 'I/O'; check
Time taken by sequential I/O: 0.101s.
Time taken by parallel MPI I/O: 0.151s.

mpirun -n 8 ./diffusion 1.0 2.0 2560  | grep 'I/O'; check
Time taken by sequential I/O: 0.148s.
Time taken by parallel MPI I/O: 0.190s.

mpirun -n 8 ./diffusion 1.0 2.0 3072  | grep 'I/O'; check
Time taken by sequential I/O: 0.213s.
Time taken by parallel MPI I/O: 0.212s.

mpirun -n 8 ./diffusion 1.0 2.0 3584  | grep 'I/O'; check
Time taken by sequential I/O: 0.287s.
Time taken by parallel MPI I/O: 0.271s.

mpirun -n 8 ./diffusion 1.0 2.0 4096  | grep 'I/O'; check
Time taken by sequential I/O: 0.377s.
Time taken by parallel MPI I/O: 0.360s.

mpirun -n 8 ./diffusion 1.0 2.0 4608  | grep 'I/O'; check
Time taken by sequential I/O: 0.464s.
Time taken by parallel MPI I/O: 0.431s.

mpirun -n 8 ./diffusion 1.0 2.0 5120  | grep 'I/O'; check
Time taken by sequential I/O: 0.578s.
Time taken by parallel MPI I/O: 0.545s.

mpirun -n 8 ./diffusion 1.0 2.0 5632  | grep 'I/O'; check
Time taken by sequential I/O: 0.696s.
Time taken by parallel MPI I/O: 0.697s.

mpirun -n 8 ./diffusion 1.0 2.0 6144  | grep 'I/O'; check
Time taken by sequential I/O: 0.829s.
Time taken by parallel MPI I/O: 0.799s.

mpirun -n 8 ./diffusion 1.0 2.0 1024  | grep 'I/O'; check
Time taken by sequential I/O: 0.028s.
Time taken by parallel MPI I/O: 0.043s.

mpirun -n 8 ./diffusion 1.0 2.0 1536  | grep 'I/O'; check
Time taken by sequential I/O: 0.057s.
Time taken by parallel MPI I/O: 0.068s.

mpirun -n 8 ./diffusion 1.0 2.0 2048  | grep 'I/O'; check
Time taken by sequential I/O: 0.098s.
Time taken by parallel MPI I/O: 0.104s.

mpirun -n 8 ./diffusion 1.0 2.0 2560  | grep 'I/O'; check
Time taken by sequential I/O: 0.149s.
Time taken by parallel MPI I/O: 0.151s.

mpirun -n 8 ./diffusion 1.0 2.0 3072  | grep 'I/O'; check
Time taken by sequential I/O: 0.212s.
Time taken by parallel MPI I/O: 0.207s.

mpirun -n 8 ./diffusion 1.0 2.0 3584  | grep 'I/O'; check
Time taken by sequential I/O: 0.288s.
Time taken by parallel MPI I/O: 0.273s.

mpirun -n 8 ./diffusion 1.0 2.0 4096  | grep 'I/O'; check
Time taken by sequential I/O: 0.373s.
Time taken by parallel MPI I/O: 0.361s.

mpirun -n 8 ./diffusion 1.0 2.0 4608  | grep 'I/O'; check
Time taken by sequential I/O: 0.464s.
Time taken by parallel MPI I/O: 0.473s.

mpirun -n 8 ./diffusion 1.0 2.0 5120  | grep 'I/O'; check
Time taken by sequential I/O: 0.574s.
Time taken by parallel MPI I/O: 0.544s.

mpirun -n 8 ./diffusion 1.0 2.0 5632  | grep 'I/O'; check
Time taken by sequential I/O: 0.700s.
Time taken by parallel MPI I/O: 0.662s.

mpirun -n 8 ./diffusion 1.0 2.0 6144  | grep 'I/O'; check
Time taken by sequential I/O: 0.832s.
Time taken by parallel MPI I/O: 0.795s.

mpirun -n 8 ./diffusion 1.0 2.0 1024  | grep 'I/O'; check
Time taken by sequential I/O: 0.028s.
Time taken by parallel MPI I/O: 0.045s.

mpirun -n 8 ./diffusion 1.0 2.0 1536  | grep 'I/O'; check
Time taken by sequential I/O: 0.057s.
Time taken by parallel MPI I/O: 0.069s.

mpirun -n 8 ./diffusion 1.0 2.0 2048  | grep 'I/O'; check
Time taken by sequential I/O: 0.097s.
Time taken by parallel MPI I/O: 0.110s.

mpirun -n 8 ./diffusion 1.0 2.0 2560  | grep 'I/O'; check
Time taken by sequential I/O: 0.149s.
Time taken by parallel MPI I/O: 0.150s.

mpirun -n 8 ./diffusion 1.0 2.0 3072  | grep 'I/O'; check
Time taken by sequential I/O: 0.238s.
Time taken by parallel MPI I/O: 0.205s.

mpirun -n 8 ./diffusion 1.0 2.0 3584  | grep 'I/O'; check
Time taken by sequential I/O: 0.288s.
Time taken by parallel MPI I/O: 0.273s.

mpirun -n 8 ./diffusion 1.0 2.0 4096  | grep 'I/O'; check
Time taken by sequential I/O: 0.375s.
Time taken by parallel MPI I/O: 0.359s.

mpirun -n 8 ./diffusion 1.0 2.0 4608  | grep 'I/O'; check
Time taken by sequential I/O: 0.469s.
Time taken by parallel MPI I/O: 0.438s.

mpirun -n 8 ./diffusion 1.0 2.0 5120  | grep 'I/O'; check
Time taken by sequential I/O: 0.572s.
Time taken by parallel MPI I/O: 0.547s.

mpirun -n 8 ./diffusion 1.0 2.0 5632  | grep 'I/O'; check
Time taken by sequential I/O: 0.696s.
Time taken by parallel MPI I/O: 0.698s.

mpirun -n 8 ./diffusion 1.0 2.0 6144  | grep 'I/O'; check
Time taken by sequential I/O: 0.829s.
Time taken by parallel MPI I/O: 0.796s.

mpirun -n 8 ./diffusion 1.0 2.0 1024  | grep 'I/O'; check
Time taken by sequential I/O: 0.028s.
Time taken by parallel MPI I/O: 0.044s.

mpirun -n 8 ./diffusion 1.0 2.0 1536  | grep 'I/O'; check
Time taken by sequential I/O: 0.057s.
Time taken by parallel MPI I/O: 0.070s.

mpirun -n 8 ./diffusion 1.0 2.0 2048  | grep 'I/O'; check
Time taken by sequential I/O: 0.098s.
Time taken by parallel MPI I/O: 0.102s.

mpirun -n 8 ./diffusion 1.0 2.0 2560  | grep 'I/O'; check
Time taken by sequential I/O: 0.148s.
Time taken by parallel MPI I/O: 0.150s.

mpirun -n 8 ./diffusion 1.0 2.0 3072  | grep 'I/O'; check
Time taken by sequential I/O: 0.212s.
Time taken by parallel MPI I/O: 0.206s.

mpirun -n 8 ./diffusion 1.0 2.0 3584  | grep 'I/O'; check
Time taken by sequential I/O: 0.289s.
Time taken by parallel MPI I/O: 0.272s.

mpirun -n 8 ./diffusion 1.0 2.0 4096  | grep 'I/O'; check
Time taken by sequential I/O: 0.375s.
Time taken by parallel MPI I/O: 0.360s.

mpirun -n 8 ./diffusion 1.0 2.0 4608  | grep 'I/O'; check
Time taken by sequential I/O: 0.470s.
Time taken by parallel MPI I/O: 0.461s.

mpirun -n 8 ./diffusion 1.0 2.0 5120  | grep 'I/O'; check
Time taken by sequential I/O: 0.574s.
Time taken by parallel MPI I/O: 0.545s.

mpirun -n 8 ./diffusion 1.0 2.0 5632  | grep 'I/O'; check
Time taken by sequential I/O: 0.703s.
Time taken by parallel MPI I/O: 0.671s.

mpirun -n 8 ./diffusion 1.0 2.0 6144  | grep 'I/O'; check
Time taken by sequential I/O: 0.832s.
Time taken by parallel MPI I/O: 0.793s.

mpirun -n 8 ./diffusion 1.0 2.0 1024  | grep 'I/O'; check
Time taken by sequential I/O: 0.028s.
Time taken by parallel MPI I/O: 0.045s.

mpirun -n 8 ./diffusion 1.0 2.0 1536  | grep 'I/O'; check
Time taken by sequential I/O: 0.056s.
Time taken by parallel MPI I/O: 0.070s.

mpirun -n 8 ./diffusion 1.0 2.0 2048  | grep 'I/O'; check
Time taken by sequential I/O: 0.098s.
Time taken by parallel MPI I/O: 0.106s.

mpirun -n 8 ./diffusion 1.0 2.0 2560  | grep 'I/O'; check
Time taken by sequential I/O: 0.150s.
Time taken by parallel MPI I/O: 0.152s.

mpirun -n 8 ./diffusion 1.0 2.0 3072  | grep 'I/O'; check
Time taken by sequential I/O: 0.238s.
Time taken by parallel MPI I/O: 0.209s.

mpirun -n 8 ./diffusion 1.0 2.0 3584  | grep 'I/O'; check
Time taken by sequential I/O: 0.289s.
Time taken by parallel MPI I/O: 0.271s.

mpirun -n 8 ./diffusion 1.0 2.0 4096  | grep 'I/O'; check
Time taken by sequential I/O: 0.375s.
Time taken by parallel MPI I/O: 0.360s.

mpirun -n 8 ./diffusion 1.0 2.0 4608  | grep 'I/O'; check
Time taken by sequential I/O: 0.469s.
Time taken by parallel MPI I/O: 0.436s.

mpirun -n 8 ./diffusion 1.0 2.0 5120  | grep 'I/O'; check
Time taken by sequential I/O: 0.590s.
Time taken by parallel MPI I/O: 0.547s.

mpirun -n 8 ./diffusion 1.0 2.0 5632  | grep 'I/O'; check
Time taken by sequential I/O: 0.697s.
Time taken by parallel MPI I/O: 0.692s.

mpirun -n 8 ./diffusion 1.0 2.0 6144  | grep 'I/O'; check
Time taken by sequential I/O: 0.826s.
Time taken by parallel MPI I/O: 0.802s.

mpirun -n 8 ./diffusion 1.0 2.0 1024  | grep 'I/O'; check
Time taken by sequential I/O: 0.028s.
Time taken by parallel MPI I/O: 0.045s.

mpirun -n 8 ./diffusion 1.0 2.0 1536  | grep 'I/O'; check
Time taken by sequential I/O: 0.056s.
Time taken by parallel MPI I/O: 0.068s.

mpirun -n 8 ./diffusion 1.0 2.0 2048  | grep 'I/O'; check
Time taken by sequential I/O: 0.098s.
Time taken by parallel MPI I/O: 0.106s.

mpirun -n 8 ./diffusion 1.0 2.0 2560  | grep 'I/O'; check
Time taken by sequential I/O: 0.147s.
Time taken by parallel MPI I/O: 0.151s.

mpirun -n 8 ./diffusion 1.0 2.0 3072  | grep 'I/O'; check
Time taken by sequential I/O: 0.213s.
Time taken by parallel MPI I/O: 0.208s.

mpirun -n 8 ./diffusion 1.0 2.0 3584  | grep 'I/O'; check
Time taken by sequential I/O: 0.289s.
Time taken by parallel MPI I/O: 0.273s.

mpirun -n 8 ./diffusion 1.0 2.0 4096  | grep 'I/O'; check
Time taken by sequential I/O: 0.374s.
Time taken by parallel MPI I/O: 0.362s.

mpirun -n 8 ./diffusion 1.0 2.0 4608  | grep 'I/O'; check
Time taken by sequential I/O: 0.469s.
Time taken by parallel MPI I/O: 0.462s.

mpirun -n 8 ./diffusion 1.0 2.0 5120  | grep 'I/O'; check
Time taken by sequential I/O: 0.577s.
Time taken by parallel MPI I/O: 0.549s.

mpirun -n 8 ./diffusion 1.0 2.0 5632  | grep 'I/O'; check
Time taken by sequential I/O: 0.698s.
Time taken by parallel MPI I/O: 0.670s.

mpirun -n 8 ./diffusion 1.0 2.0 6144  | grep 'I/O'; check
Time taken by sequential I/O: 0.826s.
Time taken by parallel MPI I/O: 0.795s.

mpirun -n 8 ./diffusion 1.0 2.0 1024  | grep 'I/O'; check
Time taken by sequential I/O: 0.028s.
Time taken by parallel MPI I/O: 0.044s.

mpirun -n 8 ./diffusion 1.0 2.0 1536  | grep 'I/O'; check
Time taken by sequential I/O: 0.058s.
Time taken by parallel MPI I/O: 0.069s.

mpirun -n 8 ./diffusion 1.0 2.0 2048  | grep 'I/O'; check
Time taken by sequential I/O: 0.098s.
Time taken by parallel MPI I/O: 0.103s.

mpirun -n 8 ./diffusion 1.0 2.0 2560  | grep 'I/O'; check
Time taken by sequential I/O: 0.150s.
Time taken by parallel MPI I/O: 0.175s.

mpirun -n 8 ./diffusion 1.0 2.0 3072  | grep 'I/O'; check
Time taken by sequential I/O: 0.213s.
Time taken by parallel MPI I/O: 0.208s.

mpirun -n 8 ./diffusion 1.0 2.0 3584  | grep 'I/O'; check
Time taken by sequential I/O: 0.289s.
Time taken by parallel MPI I/O: 0.271s.

mpirun -n 8 ./diffusion 1.0 2.0 4096  | grep 'I/O'; check
Time taken by sequential I/O: 0.374s.
Time taken by parallel MPI I/O: 0.359s.

mpirun -n 8 ./diffusion 1.0 2.0 4608  | grep 'I/O'; check
Time taken by sequential I/O: 0.468s.
Time taken by parallel MPI I/O: 0.434s.

mpirun -n 8 ./diffusion 1.0 2.0 5120  | grep 'I/O'; check
Time taken by sequential I/O: 0.575s.
Time taken by parallel MPI I/O: 0.549s.

mpirun -n 8 ./diffusion 1.0 2.0 5632  | grep 'I/O'; check
Time taken by sequential I/O: 0.697s.
Time taken by parallel MPI I/O: 0.696s.

mpirun -n 8 ./diffusion 1.0 2.0 6144  | grep 'I/O'; check
Time taken by sequential I/O: 0.829s.
Time taken by parallel MPI I/O: 0.803s.

mpirun -n 8 ./diffusion 1.0 2.0 1024  | grep 'I/O'; check
Time taken by sequential I/O: 0.030s.
Time taken by parallel MPI I/O: 0.043s.

mpirun -n 8 ./diffusion 1.0 2.0 1536  | grep 'I/O'; check
Time taken by sequential I/O: 0.057s.
Time taken by parallel MPI I/O: 0.068s.

mpirun -n 8 ./diffusion 1.0 2.0 2048  | grep 'I/O'; check
Time taken by sequential I/O: 0.097s.
Time taken by parallel MPI I/O: 0.103s.

mpirun -n 8 ./diffusion 1.0 2.0 2560  | grep 'I/O'; check
Time taken by sequential I/O: 0.149s.
Time taken by parallel MPI I/O: 0.151s.

mpirun -n 8 ./diffusion 1.0 2.0 3072  | grep 'I/O'; check
Time taken by sequential I/O: 0.214s.
Time taken by parallel MPI I/O: 0.205s.

mpirun -n 8 ./diffusion 1.0 2.0 3584  | grep 'I/O'; check
Time taken by sequential I/O: 0.290s.
Time taken by parallel MPI I/O: 0.275s.

mpirun -n 8 ./diffusion 1.0 2.0 4096  | grep 'I/O'; check
Time taken by sequential I/O: 0.372s.
Time taken by parallel MPI I/O: 0.358s.

mpirun -n 8 ./diffusion 1.0 2.0 4608  | grep 'I/O'; check
Time taken by sequential I/O: 0.466s.
Time taken by parallel MPI I/O: 0.477s.

mpirun -n 8 ./diffusion 1.0 2.0 5120  | grep 'I/O'; check
Time taken by sequential I/O: 0.576s.
Time taken by parallel MPI I/O: 0.548s.

mpirun -n 8 ./diffusion 1.0 2.0 5632  | grep 'I/O'; check
Time taken by sequential I/O: 0.698s.
Time taken by parallel MPI I/O: 0.667s.

mpirun -n 8 ./diffusion 1.0 2.0 6144  | grep 'I/O'; check
Time taken by sequential I/O: 0.828s.
Time taken by parallel MPI I/O: 0.795s.

mpirun -n 8 ./diffusion 1.0 2.0 1024  | grep 'I/O'; check
Time taken by sequential I/O: 0.029s.
Time taken by parallel MPI I/O: 0.044s.

mpirun -n 8 ./diffusion 1.0 2.0 1536  | grep 'I/O'; check
Time taken by sequential I/O: 0.057s.
Time taken by parallel MPI I/O: 0.069s.

mpirun -n 8 ./diffusion 1.0 2.0 2048  | grep 'I/O'; check
Time taken by sequential I/O: 0.098s.
Time taken by parallel MPI I/O: 0.104s.

mpirun -n 8 ./diffusion 1.0 2.0 2560  | grep 'I/O'; check
Time taken by sequential I/O: 0.148s.
Time taken by parallel MPI I/O: 0.150s.

mpirun -n 8 ./diffusion 1.0 2.0 3072  | grep 'I/O'; check
Time taken by sequential I/O: 0.238s.
Time taken by parallel MPI I/O: 0.214s.

mpirun -n 8 ./diffusion 1.0 2.0 3584  | grep 'I/O'; check
Time taken by sequential I/O: 0.287s.
Time taken by parallel MPI I/O: 0.271s.

mpirun -n 8 ./diffusion 1.0 2.0 4096  | grep 'I/O'; check
Time taken by sequential I/O: 0.372s.
Time taken by parallel MPI I/O: 0.363s.

mpirun -n 8 ./diffusion 1.0 2.0 4608  | grep 'I/O'; check
Time taken by sequential I/O: 0.469s.
Time taken by parallel MPI I/O: 0.437s.

mpirun -n 8 ./diffusion 1.0 2.0 5120  | grep 'I/O'; check
Time taken by sequential I/O: 0.574s.
Time taken by parallel MPI I/O: 0.548s.

mpirun -n 8 ./diffusion 1.0 2.0 5632  | grep 'I/O'; check
Time taken by sequential I/O: 0.697s.
Time taken by parallel MPI I/O: 0.696s.

mpirun -n 8 ./diffusion 1.0 2.0 6144  | grep 'I/O'; check
Time taken by sequential I/O: 0.830s.
Time taken by parallel MPI I/O: 0.802s.

mpirun -n 8 ./diffusion 1.0 2.0 1024  | grep 'I/O'; check
Time taken by sequential I/O: 0.029s.
Time taken by parallel MPI I/O: 0.044s.

mpirun -n 8 ./diffusion 1.0 2.0 1536  | grep 'I/O'; check
Time taken by sequential I/O: 0.057s.
Time taken by parallel MPI I/O: 0.069s.

mpirun -n 8 ./diffusion 1.0 2.0 2048  | grep 'I/O'; check
Time taken by sequential I/O: 0.097s.
Time taken by parallel MPI I/O: 0.103s.

mpirun -n 8 ./diffusion 1.0 2.0 2560  | grep 'I/O'; check
Time taken by sequential I/O: 0.148s.
Time taken by parallel MPI I/O: 0.151s.

mpirun -n 8 ./diffusion 1.0 2.0 3072  | grep 'I/O'; check
Time taken by sequential I/O: 0.211s.
Time taken by parallel MPI I/O: 0.201s.

mpirun -n 8 ./diffusion 1.0 2.0 3584  | grep 'I/O'; check
Time taken by sequential I/O: 0.289s.
Time taken by parallel MPI I/O: 0.271s.

mpirun -n 8 ./diffusion 1.0 2.0 4096  | grep 'I/O'; check
Time taken by sequential I/O: 0.376s.
Time taken by parallel MPI I/O: 0.361s.

mpirun -n 8 ./diffusion 1.0 2.0 4608  | grep 'I/O'; check
Time taken by sequential I/O: 0.468s.
Time taken by parallel MPI I/O: 0.437s.

mpirun -n 8 ./diffusion 1.0 2.0 5120  | grep 'I/O'; check
Time taken by sequential I/O: 0.585s.
Time taken by parallel MPI I/O: 0.561s.

mpirun -n 8 ./diffusion 1.0 2.0 5632  | grep 'I/O'; check
Time taken by sequential I/O: 0.711s.
Time taken by parallel MPI I/O: 0.690s.

mpirun -n 8 ./diffusion 1.0 2.0 6144  | grep 'I/O'; check
Time taken by sequential I/O: 0.827s.
Time taken by parallel MPI I/O: 0.818s.

mpirun -n 8 ./diffusion 1.0 2.0 1024  | grep 'I/O'; check
Time taken by sequential I/O: 0.028s.
Time taken by parallel MPI I/O: 0.043s.

mpirun -n 8 ./diffusion 1.0 2.0 1536  | grep 'I/O'; check
Time taken by sequential I/O: 0.058s.
Time taken by parallel MPI I/O: 0.069s.

mpirun -n 8 ./diffusion 1.0 2.0 2048  | grep 'I/O'; check
Time taken by sequential I/O: 0.096s.
Time taken by parallel MPI I/O: 0.102s.

mpirun -n 8 ./diffusion 1.0 2.0 2560  | grep 'I/O'; check
Time taken by sequential I/O: 0.147s.
Time taken by parallel MPI I/O: 0.151s.

mpirun -n 8 ./diffusion 1.0 2.0 3072  | grep 'I/O'; check
Time taken by sequential I/O: 0.211s.
Time taken by parallel MPI I/O: 0.210s.

mpirun -n 8 ./diffusion 1.0 2.0 3584  | grep 'I/O'; check
Time taken by sequential I/O: 0.288s.
Time taken by parallel MPI I/O: 0.273s.

mpirun -n 8 ./diffusion 1.0 2.0 4096  | grep 'I/O'; check
Time taken by sequential I/O: 0.375s.
Time taken by parallel MPI I/O: 0.360s.

mpirun -n 8 ./diffusion 1.0 2.0 4608  | grep 'I/O'; check
Time taken by sequential I/O: 0.471s.
Time taken by parallel MPI I/O: 0.440s.

mpirun -n 8 ./diffusion 1.0 2.0 5120  | grep 'I/O'; check
Time taken by sequential I/O: 0.576s.
Time taken by parallel MPI I/O: 0.545s.

mpirun -n 8 ./diffusion 1.0 2.0 5632  | grep 'I/O'; check
Time taken by sequential I/O: 0.718s.
Time taken by parallel MPI I/O: 0.674s.

mpirun -n 8 ./diffusion 1.0 2.0 6144  | grep 'I/O'; check
Time taken by sequential I/O: 0.832s.
Time taken by parallel MPI I/O: 0.793s.

mpirun -n 8 ./diffusion 1.0 2.0 1024  | grep 'I/O'; check
Time taken by sequential I/O: 0.029s.
Time taken by parallel MPI I/O: 0.044s.

mpirun -n 8 ./diffusion 1.0 2.0 1536  | grep 'I/O'; check
Time taken by sequential I/O: 0.057s.
Time taken by parallel MPI I/O: 0.072s.

mpirun -n 8 ./diffusion 1.0 2.0 2048  | grep 'I/O'; check
Time taken by sequential I/O: 0.098s.
Time taken by parallel MPI I/O: 0.103s.

mpirun -n 8 ./diffusion 1.0 2.0 2560  | grep 'I/O'; check
Time taken by sequential I/O: 0.148s.
Time taken by parallel MPI I/O: 0.153s.

mpirun -n 8 ./diffusion 1.0 2.0 3072  | grep 'I/O'; check
Time taken by sequential I/O: 0.213s.
Time taken by parallel MPI I/O: 0.209s.

mpirun -n 8 ./diffusion 1.0 2.0 3584  | grep 'I/O'; check
Time taken by sequential I/O: 0.290s.
Time taken by parallel MPI I/O: 0.271s.

mpirun -n 8 ./diffusion 1.0 2.0 4096  | grep 'I/O'; check
Time taken by sequential I/O: 0.405s.
Time taken by parallel MPI I/O: 0.378s.

mpirun -n 8 ./diffusion 1.0 2.0 4608  | grep 'I/O'; check
Time taken by sequential I/O: 0.466s.
Time taken by parallel MPI I/O: 0.433s.

mpirun -n 8 ./diffusion 1.0 2.0 5120  | grep 'I/O'; check
Time taken by sequential I/O: 0.581s.
Time taken by parallel MPI I/O: 0.549s.

mpirun -n 8 ./diffusion 1.0 2.0 5632  | grep 'I/O'; check
Time taken by sequential I/O: 0.697s.
Time taken by parallel MPI I/O: 0.668s.

mpirun -n 8 ./diffusion 1.0 2.0 6144  | grep 'I/O'; check
Time taken by sequential I/O: 0.830s.
Time taken by parallel MPI I/O: 0.833s.

mpirun -n 8 ./diffusion 1.0 2.0 1024  | grep 'I/O'; check
Time taken by sequential I/O: 0.027s.
Time taken by parallel MPI I/O: 0.044s.

mpirun -n 8 ./diffusion 1.0 2.0 1536  | grep 'I/O'; check
Time taken by sequential I/O: 0.056s.
Time taken by parallel MPI I/O: 0.068s.

mpirun -n 8 ./diffusion 1.0 2.0 2048  | grep 'I/O'; check
Time taken by sequential I/O: 0.098s.
Time taken by parallel MPI I/O: 0.105s.

mpirun -n 8 ./diffusion 1.0 2.0 2560  | grep 'I/O'; check
Time taken by sequential I/O: 0.149s.
Time taken by parallel MPI I/O: 0.152s.

mpirun -n 8 ./diffusion 1.0 2.0 3072  | grep 'I/O'; check
Time taken by sequential I/O: 0.210s.
Time taken by parallel MPI I/O: 0.208s.

mpirun -n 8 ./diffusion 1.0 2.0 3584  | grep 'I/O'; check
Time taken by sequential I/O: 0.287s.
Time taken by parallel MPI I/O: 0.271s.

mpirun -n 8 ./diffusion 1.0 2.0 4096  | grep 'I/O'; check
Time taken by sequential I/O: 0.372s.
Time taken by parallel MPI I/O: 0.358s.

mpirun -n 8 ./diffusion 1.0 2.0 4608  | grep 'I/O'; check
Time taken by sequential I/O: 0.467s.
Time taken by parallel MPI I/O: 0.435s.

mpirun -n 8 ./diffusion 1.0 2.0 5120  | grep 'I/O'; check
Time taken by sequential I/O: 0.575s.
Time taken by parallel MPI I/O: 0.544s.

mpirun -n 8 ./diffusion 1.0 2.0 5632  | grep 'I/O'; check
Time taken by sequential I/O: 0.725s.
Time taken by parallel MPI I/O: 0.668s.

mpirun -n 8 ./diffusion 1.0 2.0 6144  | grep 'I/O'; check
Time taken by sequential I/O: 0.827s.
Time taken by parallel MPI I/O: 0.797s.

mpirun -n 8 ./diffusion 1.0 2.0 1024  | grep 'I/O'; check
Time taken by sequential I/O: 0.028s.
Time taken by parallel MPI I/O: 0.044s.

mpirun -n 8 ./diffusion 1.0 2.0 1536  | grep 'I/O'; check
Time taken by sequential I/O: 0.056s.
Time taken by parallel MPI I/O: 0.069s.

mpirun -n 8 ./diffusion 1.0 2.0 2048  | grep 'I/O'; check
Time taken by sequential I/O: 0.097s.
Time taken by parallel MPI I/O: 0.104s.

mpirun -n 8 ./diffusion 1.0 2.0 2560  | grep 'I/O'; check
Time taken by sequential I/O: 0.149s.
Time taken by parallel MPI I/O: 0.152s.

mpirun -n 8 ./diffusion 1.0 2.0 3072  | grep 'I/O'; check
Time taken by sequential I/O: 0.212s.
Time taken by parallel MPI I/O: 0.208s.

mpirun -n 8 ./diffusion 1.0 2.0 3584  | grep 'I/O'; check
Time taken by sequential I/O: 0.288s.
Time taken by parallel MPI I/O: 0.275s.

mpirun -n 8 ./diffusion 1.0 2.0 4096  | grep 'I/O'; check
Time taken by sequential I/O: 0.374s.
Time taken by parallel MPI I/O: 0.391s.

mpirun -n 8 ./diffusion 1.0 2.0 4608  | grep 'I/O'; check
Time taken by sequential I/O: 0.466s.
Time taken by parallel MPI I/O: 0.437s.

mpirun -n 8 ./diffusion 1.0 2.0 5120  | grep 'I/O'; check
Time taken by sequential I/O: 0.581s.
Time taken by parallel MPI I/O: 0.565s.

mpirun -n 8 ./diffusion 1.0 2.0 5632  | grep 'I/O'; check
Time taken by sequential I/O: 0.700s.
Time taken by parallel MPI I/O: 0.678s.

mpirun -n 8 ./diffusion 1.0 2.0 6144  | grep 'I/O'; check
Time taken by sequential I/O: 0.876s.
Time taken by parallel MPI I/O: 0.810s.

mpirun -n 8 ./diffusion 1.0 2.0 1024  | grep 'I/O'; check
Time taken by sequential I/O: 0.028s.
Time taken by parallel MPI I/O: 0.052s.

mpirun -n 8 ./diffusion 1.0 2.0 1536  | grep 'I/O'; check
Time taken by sequential I/O: 0.062s.
Time taken by parallel MPI I/O: 0.071s.

mpirun -n 8 ./diffusion 1.0 2.0 2048  | grep 'I/O'; check
Time taken by sequential I/O: 0.097s.
Time taken by parallel MPI I/O: 0.113s.

mpirun -n 8 ./diffusion 1.0 2.0 2560  | grep 'I/O'; check
Time taken by sequential I/O: 0.153s.
Time taken by parallel MPI I/O: 0.151s.

mpirun -n 8 ./diffusion 1.0 2.0 3072  | grep 'I/O'; check
Time taken by sequential I/O: 0.221s.
Time taken by parallel MPI I/O: 0.207s.

mpirun -n 8 ./diffusion 1.0 2.0 3584  | grep 'I/O'; check
Time taken by sequential I/O: 0.296s.
Time taken by parallel MPI I/O: 0.277s.

mpirun -n 8 ./diffusion 1.0 2.0 4096  | grep 'I/O'; check
Time taken by sequential I/O: 0.375s.
Time taken by parallel MPI I/O: 0.382s.

mpirun -n 8 ./diffusion 1.0 2.0 4608  | grep 'I/O'; check
Time taken by sequential I/O: 0.481s.
Time taken by parallel MPI I/O: 0.450s.

mpirun -n 8 ./diffusion 1.0 2.0 5120  | grep 'I/O'; check
Time taken by sequential I/O: 0.580s.
Time taken by parallel MPI I/O: 0.553s.

mpirun -n 8 ./diffusion 1.0 2.0 5632  | grep 'I/O'; check
Time taken by sequential I/O: 0.705s.
Time taken by parallel MPI I/O: 0.686s.

mpirun -n 8 ./diffusion 1.0 2.0 6144  | grep 'I/O'; check
Time taken by sequential I/O: 0.849s.
Time taken by parallel MPI I/O: 0.809s.

mpirun -n 8 ./diffusion 1.0 2.0 1024  | grep 'I/O'; check
Time taken by sequential I/O: 0.037s.
Time taken by parallel MPI I/O: 0.050s.

mpirun -n 8 ./diffusion 1.0 2.0 1536  | grep 'I/O'; check
Time taken by sequential I/O: 0.057s.
Time taken by parallel MPI I/O: 0.078s.

mpirun -n 8 ./diffusion 1.0 2.0 2048  | grep 'I/O'; check
Time taken by sequential I/O: 0.098s.
Time taken by parallel MPI I/O: 0.105s.

mpirun -n 8 ./diffusion 1.0 2.0 2560  | grep 'I/O'; check
Time taken by sequential I/O: 0.155s.
Time taken by parallel MPI I/O: 0.151s.

mpirun -n 8 ./diffusion 1.0 2.0 3072  | grep 'I/O'; check
Time taken by sequential I/O: 0.213s.
Time taken by parallel MPI I/O: 0.221s.

mpirun -n 8 ./diffusion 1.0 2.0 3584  | grep 'I/O'; check
Time taken by sequential I/O: 0.289s.
Time taken by parallel MPI I/O: 0.283s.

mpirun -n 8 ./diffusion 1.0 2.0 4096  | grep 'I/O'; check
Time taken by sequential I/O: 0.374s.
Time taken by parallel MPI I/O: 0.415s.

mpirun -n 8 ./diffusion 1.0 2.0 4608  | grep 'I/O'; check
Time taken by sequential I/O: 0.478s.
Time taken by parallel MPI I/O: 0.439s.

mpirun -n 8 ./diffusion 1.0 2.0 5120  | grep 'I/O'; check
Time taken by sequential I/O: 0.578s.
Time taken by parallel MPI I/O: 0.565s.

mpirun -n 8 ./diffusion 1.0 2.0 5632  | grep 'I/O'; check
Time taken by sequential I/O: 0.705s.
Time taken by parallel MPI I/O: 0.697s.

mpirun -n 8 ./diffusion 1.0 2.0 6144  | grep 'I/O'; check
Time taken by sequential I/O: 0.840s.
Time taken by parallel MPI I/O: 0.843s.

mpirun -n 8 ./diffusion 1.0 2.0 1024  | grep 'I/O'; check
Time taken by sequential I/O: 0.031s.
Time taken by parallel MPI I/O: 0.046s.

mpirun -n 8 ./diffusion 1.0 2.0 1536  | grep 'I/O'; check
Time taken by sequential I/O: 0.058s.
Time taken by parallel MPI I/O: 0.076s.

mpirun -n 8 ./diffusion 1.0 2.0 2048  | grep 'I/O'; check
Time taken by sequential I/O: 0.097s.
Time taken by parallel MPI I/O: 0.108s.

mpirun -n 8 ./diffusion 1.0 2.0 2560  | grep 'I/O'; check
Time taken by sequential I/O: 0.152s.
Time taken by parallel MPI I/O: 0.158s.

mpirun -n 8 ./diffusion 1.0 2.0 3072  | grep 'I/O'; check
Time taken by sequential I/O: 0.217s.
Time taken by parallel MPI I/O: 0.226s.

mpirun -n 8 ./diffusion 1.0 2.0 3584  | grep 'I/O'; check
Time taken by sequential I/O: 0.322s.
Time taken by parallel MPI I/O: 0.322s.

mpirun -n 8 ./diffusion 1.0 2.0 4096  | grep 'I/O'; check
Time taken by sequential I/O: 0.387s.
Time taken by parallel MPI I/O: 0.362s.

mpirun -n 8 ./diffusion 1.0 2.0 4608  | grep 'I/O'; check
Time taken by sequential I/O: 0.469s.
Time taken by parallel MPI I/O: 0.443s.

mpirun -n 8 ./diffusion 1.0 2.0 5120  | grep 'I/O'; check
Time taken by sequential I/O: 0.577s.
Time taken by parallel MPI I/O: 0.564s.

mpirun -n 8 ./diffusion 1.0 2.0 5632  | grep 'I/O'; check
Time taken by sequential I/O: 0.710s.
Time taken by parallel MPI I/O: 0.767s.

mpirun -n 8 ./diffusion 1.0 2.0 6144  | grep 'I/O'; check
Time taken by sequential I/O: 0.834s.
Time taken by parallel MPI I/O: 0.820s.

mpirun -n 8 ./diffusion 1.0 2.0 1024  | grep 'I/O'; check
Time taken by sequential I/O: 0.028s.
Time taken by parallel MPI I/O: 0.047s.

mpirun -n 8 ./diffusion 1.0 2.0 1536  | grep 'I/O'; check
Time taken by sequential I/O: 0.058s.
Time taken by parallel MPI I/O: 0.077s.

mpirun -n 8 ./diffusion 1.0 2.0 2048  | grep 'I/O'; check
Time taken by sequential I/O: 0.098s.
Time taken by parallel MPI I/O: 0.108s.

mpirun -n 8 ./diffusion 1.0 2.0 2560  | grep 'I/O'; check
Time taken by sequential I/O: 0.150s.
Time taken by parallel MPI I/O: 0.151s.

mpirun -n 8 ./diffusion 1.0 2.0 3072  | grep 'I/O'; check
Time taken by sequential I/O: 0.212s.
Time taken by parallel MPI I/O: 0.208s.

mpirun -n 8 ./diffusion 1.0 2.0 3584  | grep 'I/O'; check
Time taken by sequential I/O: 0.289s.
Time taken by parallel MPI I/O: 0.273s.

mpirun -n 8 ./diffusion 1.0 2.0 4096  | grep 'I/O'; check
Time taken by sequential I/O: 0.408s.
Time taken by parallel MPI I/O: 0.388s.

mpirun -n 8 ./diffusion 1.0 2.0 4608  | grep 'I/O'; check
Time taken by sequential I/O: 0.479s.
Time taken by parallel MPI I/O: 0.446s.

mpirun -n 8 ./diffusion 1.0 2.0 5120  | grep 'I/O'; check
Time taken by sequential I/O: 0.577s.
Time taken by parallel MPI I/O: 0.569s.

mpirun -n 8 ./diffusion 1.0 2.0 5632  | grep 'I/O'; check
Time taken by sequential I/O: 0.702s.
Time taken by parallel MPI I/O: 0.676s.

mpirun -n 8 ./diffusion 1.0 2.0 6144  | grep 'I/O'; check
Time taken by sequential I/O: 0.845s.
Time taken by parallel MPI I/O: 0.798s.

mpirun -n 8 ./diffusion 1.0 2.0 1024  | grep 'I/O'; check
Time taken by sequential I/O: 0.028s.
Time taken by parallel MPI I/O: 0.044s.

mpirun -n 8 ./diffusion 1.0 2.0 1536  | grep 'I/O'; check
Time taken by sequential I/O: 0.060s.
Time taken by parallel MPI I/O: 0.068s.

mpirun -n 8 ./diffusion 1.0 2.0 2048  | grep 'I/O'; check
Time taken by sequential I/O: 0.109s.
Time taken by parallel MPI I/O: 0.114s.

mpirun -n 8 ./diffusion 1.0 2.0 2560  | grep 'I/O'; check
Time taken by sequential I/O: 0.153s.
Time taken by parallel MPI I/O: 0.153s.

mpirun -n 8 ./diffusion 1.0 2.0 3072  | grep 'I/O'; check
Time taken by sequential I/O: 0.212s.
Time taken by parallel MPI I/O: 0.208s.

mpirun -n 8 ./diffusion 1.0 2.0 3584  | grep 'I/O'; check
Time taken by sequential I/O: 0.289s.
Time taken by parallel MPI I/O: 0.280s.

mpirun -n 8 ./diffusion 1.0 2.0 4096  | grep 'I/O'; check
Time taken by sequential I/O: 0.377s.
Time taken by parallel MPI I/O: 0.371s.

mpirun -n 8 ./diffusion 1.0 2.0 4608  | grep 'I/O'; check
Time taken by sequential I/O: 0.522s.
Time taken by parallel MPI I/O: 0.466s.

mpirun -n 8 ./diffusion 1.0 2.0 5120  | grep 'I/O'; check
Time taken by sequential I/O: 0.575s.
Time taken by parallel MPI I/O: 0.556s.

mpirun -n 8 ./diffusion 1.0 2.0 5632  | grep 'I/O'; check
Time taken by sequential I/O: 0.707s.
Time taken by parallel MPI I/O: 0.690s.

mpirun -n 8 ./diffusion 1.0 2.0 6144  | grep 'I/O'; check
Time taken by sequential I/O: 0.866s.
Time taken by parallel MPI I/O: 0.818s.

mpirun -n 8 ./diffusion 1.0 2.0 1024  | grep 'I/O'; check
Time taken by sequential I/O: 0.029s.
Time taken by parallel MPI I/O: 0.044s.

mpirun -n 8 ./diffusion 1.0 2.0 1536  | grep 'I/O'; check
Time taken by sequential I/O: 0.058s.
Time taken by parallel MPI I/O: 0.074s.

mpirun -n 8 ./diffusion 1.0 2.0 2048  | grep 'I/O'; check
Time taken by sequential I/O: 0.101s.
Time taken by parallel MPI I/O: 0.104s.

mpirun -n 8 ./diffusion 1.0 2.0 2560  | grep 'I/O'; check
Time taken by sequential I/O: 0.149s.
Time taken by parallel MPI I/O: 0.155s.

mpirun -n 8 ./diffusion 1.0 2.0 3072  | grep 'I/O'; check
Time taken by sequential I/O: 0.217s.
Time taken by parallel MPI I/O: 0.211s.

mpirun -n 8 ./diffusion 1.0 2.0 3584  | grep 'I/O'; check
Time taken by sequential I/O: 0.287s.
Time taken by parallel MPI I/O: 0.295s.

mpirun -n 8 ./diffusion 1.0 2.0 4096  | grep 'I/O'; check
Time taken by sequential I/O: 0.383s.
Time taken by parallel MPI I/O: 0.368s.

mpirun -n 8 ./diffusion 1.0 2.0 4608  | grep 'I/O'; check
Time taken by sequential I/O: 0.469s.
Time taken by parallel MPI I/O: 0.479s.

mpirun -n 8 ./diffusion 1.0 2.0 5120  | grep 'I/O'; check
Time taken by sequential I/O: 0.584s.
Time taken by parallel MPI I/O: 0.549s.

mpirun -n 8 ./diffusion 1.0 2.0 5632  | grep 'I/O'; check
Time taken by sequential I/O: 0.699s.
Time taken by parallel MPI I/O: 0.678s.

mpirun -n 8 ./diffusion 1.0 2.0 6144  | grep 'I/O'; check
Time taken by sequential I/O: 0.831s.
Time taken by parallel MPI I/O: 0.911s.

mpirun -n 8 ./diffusion 1.0 2.0 1024  | grep 'I/O'; check
Time taken by sequential I/O: 0.029s.
Time taken by parallel MPI I/O: 0.043s.

mpirun -n 8 ./diffusion 1.0 2.0 1536  | grep 'I/O'; check
Time taken by sequential I/O: 0.056s.
Time taken by parallel MPI I/O: 0.069s.

mpirun -n 8 ./diffusion 1.0 2.0 2048  | grep 'I/O'; check
Time taken by sequential I/O: 0.097s.
Time taken by parallel MPI I/O: 0.104s.

mpirun -n 8 ./diffusion 1.0 2.0 2560  | grep 'I/O'; check
Time taken by sequential I/O: 0.148s.
Time taken by parallel MPI I/O: 0.151s.

mpirun -n 8 ./diffusion 1.0 2.0 3072  | grep 'I/O'; check
Time taken by sequential I/O: 0.213s.
Time taken by parallel MPI I/O: 0.207s.

mpirun -n 8 ./diffusion 1.0 2.0 3584  | grep 'I/O'; check
Time taken by sequential I/O: 0.289s.
Time taken by parallel MPI I/O: 0.272s.

mpirun -n 8 ./diffusion 1.0 2.0 4096  | grep 'I/O'; check
Time taken by sequential I/O: 0.379s.
Time taken by parallel MPI I/O: 0.363s.

mpirun -n 8 ./diffusion 1.0 2.0 4608  | grep 'I/O'; check
Time taken by sequential I/O: 0.466s.
Time taken by parallel MPI I/O: 0.442s.

mpirun -n 8 ./diffusion 1.0 2.0 5120  | grep 'I/O'; check
Time taken by sequential I/O: 0.603s.
Time taken by parallel MPI I/O: 0.586s.

mpirun -n 8 ./diffusion 1.0 2.0 5632  | grep 'I/O'; check
Time taken by sequential I/O: 0.695s.
Time taken by parallel MPI I/O: 0.672s.

mpirun -n 8 ./diffusion 1.0 2.0 6144  | grep 'I/O'; check
Time taken by sequential I/O: 0.832s.
Time taken by parallel MPI I/O: 0.803s.

mpirun -n 8 ./diffusion 1.0 2.0 1024  | grep 'I/O'; check
Time taken by sequential I/O: 0.028s.
Time taken by parallel MPI I/O: 0.043s.

mpirun -n 8 ./diffusion 1.0 2.0 1536  | grep 'I/O'; check
Time taken by sequential I/O: 0.057s.
Time taken by parallel MPI I/O: 0.070s.

mpirun -n 8 ./diffusion 1.0 2.0 2048  | grep 'I/O'; check
Time taken by sequential I/O: 0.096s.
Time taken by parallel MPI I/O: 0.106s.

mpirun -n 8 ./diffusion 1.0 2.0 2560  | grep 'I/O'; check
Time taken by sequential I/O: 0.149s.
Time taken by parallel MPI I/O: 0.150s.

mpirun -n 8 ./diffusion 1.0 2.0 3072  | grep 'I/O'; check
Time taken by sequential I/O: 0.211s.
Time taken by parallel MPI I/O: 0.226s.

mpirun -n 8 ./diffusion 1.0 2.0 3584  | grep 'I/O'; check
Time taken by sequential I/O: 0.291s.
Time taken by parallel MPI I/O: 0.276s.

mpirun -n 8 ./diffusion 1.0 2.0 4096  | grep 'I/O'; check
Time taken by sequential I/O: 0.372s.
Time taken by parallel MPI I/O: 0.356s.

mpirun -n 8 ./diffusion 1.0 2.0 4608  | grep 'I/O'; check
Time taken by sequential I/O: 0.467s.
Time taken by parallel MPI I/O: 0.434s.

mpirun -n 8 ./diffusion 1.0 2.0 5120  | grep 'I/O'; check
Time taken by sequential I/O: 0.574s.
Time taken by parallel MPI I/O: 0.543s.

mpirun -n 8 ./diffusion 1.0 2.0 5632  | grep 'I/O'; check
Time taken by sequential I/O: 0.695s.
Time taken by parallel MPI I/O: 0.677s.

mpirun -n 8 ./diffusion 1.0 2.0 6144  | grep 'I/O'; check
Time taken by sequential I/O: 0.866s.
Time taken by parallel MPI I/O: 0.799s.

mpirun -n 8 ./diffusion 1.0 2.0 1024  | grep 'I/O'; check
Time taken by sequential I/O: 0.028s.
Time taken by parallel MPI I/O: 0.044s.

mpirun -n 8 ./diffusion 1.0 2.0 1536  | grep 'I/O'; check
Time taken by sequential I/O: 0.056s.
Time taken by parallel MPI I/O: 0.069s.

mpirun -n 8 ./diffusion 1.0 2.0 2048  | grep 'I/O'; check
Time taken by sequential I/O: 0.096s.
Time taken by parallel MPI I/O: 0.105s.

mpirun -n 8 ./diffusion 1.0 2.0 2560  | grep 'I/O'; check
Time taken by sequential I/O: 0.147s.
Time taken by parallel MPI I/O: 0.150s.

mpirun -n 8 ./diffusion 1.0 2.0 3072  | grep 'I/O'; check
Time taken by sequential I/O: 0.212s.
Time taken by parallel MPI I/O: 0.209s.

mpirun -n 8 ./diffusion 1.0 2.0 3584  | grep 'I/O'; check
Time taken by sequential I/O: 0.289s.
Time taken by parallel MPI I/O: 0.271s.

mpirun -n 8 ./diffusion 1.0 2.0 4096  | grep 'I/O'; check
Time taken by sequential I/O: 0.375s.
Time taken by parallel MPI I/O: 0.357s.

mpirun -n 8 ./diffusion 1.0 2.0 4608  | grep 'I/O'; check
Time taken by sequential I/O: 0.467s.
Time taken by parallel MPI I/O: 0.435s.

mpirun -n 8 ./diffusion 1.0 2.0 5120  | grep 'I/O'; check
Time taken by sequential I/O: 0.600s.
Time taken by parallel MPI I/O: 0.555s.

mpirun -n 8 ./diffusion 1.0 2.0 5632  | grep 'I/O'; check
Time taken by sequential I/O: 0.695s.
Time taken by parallel MPI I/O: 0.673s.

mpirun -n 8 ./diffusion 1.0 2.0 6144  | grep 'I/O'; check
Time taken by sequential I/O: 0.827s.
Time taken by parallel MPI I/O: 0.802s.

mpirun -n 8 ./diffusion 1.0 2.0 1024  | grep 'I/O'; check
Time taken by sequential I/O: 0.028s.
Time taken by parallel MPI I/O: 0.044s.

mpirun -n 8 ./diffusion 1.0 2.0 1536  | grep 'I/O'; check
Time taken by sequential I/O: 0.057s.
Time taken by parallel MPI I/O: 0.068s.

mpirun -n 8 ./diffusion 1.0 2.0 2048  | grep 'I/O'; check
Time taken by sequential I/O: 0.096s.
Time taken by parallel MPI I/O: 0.103s.

mpirun -n 8 ./diffusion 1.0 2.0 2560  | grep 'I/O'; check
Time taken by sequential I/O: 0.149s.
Time taken by parallel MPI I/O: 0.151s.

mpirun -n 8 ./diffusion 1.0 2.0 3072  | grep 'I/O'; check
Time taken by sequential I/O: 0.211s.
Time taken by parallel MPI I/O: 0.211s.

mpirun -n 8 ./diffusion 1.0 2.0 3584  | grep 'I/O'; check
Time taken by sequential I/O: 0.289s.
Time taken by parallel MPI I/O: 0.299s.

mpirun -n 8 ./diffusion 1.0 2.0 4096  | grep 'I/O'; check
Time taken by sequential I/O: 0.376s.
Time taken by parallel MPI I/O: 0.357s.

mpirun -n 8 ./diffusion 1.0 2.0 4608  | grep 'I/O'; check
Time taken by sequential I/O: 0.470s.
Time taken by parallel MPI I/O: 0.438s.

mpirun -n 8 ./diffusion 1.0 2.0 5120  | grep 'I/O'; check
Time taken by sequential I/O: 0.584s.
Time taken by parallel MPI I/O: 0.552s.

mpirun -n 8 ./diffusion 1.0 2.0 5632  | grep 'I/O'; check
Time taken by sequential I/O: 0.697s.
Time taken by parallel MPI I/O: 0.668s.

mpirun -n 8 ./diffusion 1.0 2.0 6144  | grep 'I/O'; check
Time taken by sequential I/O: 0.869s.
Time taken by parallel MPI I/O: 0.860s.

mpirun -n 8 ./diffusion 1.0 2.0 1024  | grep 'I/O'; check
Time taken by sequential I/O: 0.029s.
Time taken by parallel MPI I/O: 0.044s.

mpirun -n 8 ./diffusion 1.0 2.0 1536  | grep 'I/O'; check
Time taken by sequential I/O: 0.057s.
Time taken by parallel MPI I/O: 0.068s.

mpirun -n 8 ./diffusion 1.0 2.0 2048  | grep 'I/O'; check
Time taken by sequential I/O: 0.096s.
Time taken by parallel MPI I/O: 0.102s.

mpirun -n 8 ./diffusion 1.0 2.0 2560  | grep 'I/O'; check
Time taken by sequential I/O: 0.149s.
Time taken by parallel MPI I/O: 0.155s.

mpirun -n 8 ./diffusion 1.0 2.0 3072  | grep 'I/O'; check
Time taken by sequential I/O: 0.211s.
Time taken by parallel MPI I/O: 0.205s.

mpirun -n 8 ./diffusion 1.0 2.0 3584  | grep 'I/O'; check
Time taken by sequential I/O: 0.288s.
Time taken by parallel MPI I/O: 0.272s.

mpirun -n 8 ./diffusion 1.0 2.0 4096  | grep 'I/O'; check
Time taken by sequential I/O: 0.377s.
Time taken by parallel MPI I/O: 0.358s.

mpirun -n 8 ./diffusion 1.0 2.0 4608  | grep 'I/O'; check
Time taken by sequential I/O: 0.464s.
Time taken by parallel MPI I/O: 0.433s.

mpirun -n 8 ./diffusion 1.0 2.0 5120  | grep 'I/O'; check
Time taken by sequential I/O: 0.612s.
Time taken by parallel MPI I/O: 0.555s.

mpirun -n 8 ./diffusion 1.0 2.0 5632  | grep 'I/O'; check
Time taken by sequential I/O: 0.695s.
Time taken by parallel MPI I/O: 0.668s.

mpirun -n 8 ./diffusion 1.0 2.0 6144  | grep 'I/O'; check
Time taken by sequential I/O: 0.823s.
Time taken by parallel MPI I/O: 0.803s.

mpirun -n 8 ./diffusion 1.0 2.0 1024  | grep 'I/O'; check
Time taken by sequential I/O: 0.028s.
Time taken by parallel MPI I/O: 0.043s.

mpirun -n 8 ./diffusion 1.0 2.0 1536  | grep 'I/O'; check
Time taken by sequential I/O: 0.057s.
Time taken by parallel MPI I/O: 0.069s.

mpirun -n 8 ./diffusion 1.0 2.0 2048  | grep 'I/O'; check
Time taken by sequential I/O: 0.097s.
Time taken by parallel MPI I/O: 0.104s.

mpirun -n 8 ./diffusion 1.0 2.0 2560  | grep 'I/O'; check
Time taken by sequential I/O: 0.148s.
Time taken by parallel MPI I/O: 0.151s.

mpirun -n 8 ./diffusion 1.0 2.0 3072  | grep 'I/O'; check
Time taken by sequential I/O: 0.211s.
Time taken by parallel MPI I/O: 0.205s.

mpirun -n 8 ./diffusion 1.0 2.0 3584  | grep 'I/O'; check
Time taken by sequential I/O: 0.314s.
Time taken by parallel MPI I/O: 0.276s.

mpirun -n 8 ./diffusion 1.0 2.0 4096  | grep 'I/O'; check
Time taken by sequential I/O: 0.372s.
Time taken by parallel MPI I/O: 0.359s.

mpirun -n 8 ./diffusion 1.0 2.0 4608  | grep 'I/O'; check
Time taken by sequential I/O: 0.470s.
Time taken by parallel MPI I/O: 0.436s.

mpirun -n 8 ./diffusion 1.0 2.0 5120  | grep 'I/O'; check
Time taken by sequential I/O: 0.573s.
Time taken by parallel MPI I/O: 0.550s.

mpirun -n 8 ./diffusion 1.0 2.0 5632  | grep 'I/O'; check
Time taken by sequential I/O: 0.695s.
Time taken by parallel MPI I/O: 0.684s.

mpirun -n 8 ./diffusion 1.0 2.0 6144  | grep 'I/O'; check
Time taken by sequential I/O: 0.864s.
Time taken by parallel MPI I/O: 0.807s.

mpirun -n 8 ./diffusion 1.0 2.0 1024  | grep 'I/O'; check
Time taken by sequential I/O: 0.029s.
Time taken by parallel MPI I/O: 0.044s.

mpirun -n 8 ./diffusion 1.0 2.0 1536  | grep 'I/O'; check
Time taken by sequential I/O: 0.057s.
Time taken by parallel MPI I/O: 0.070s.

mpirun -n 8 ./diffusion 1.0 2.0 2048  | grep 'I/O'; check
Time taken by sequential I/O: 0.096s.
Time taken by parallel MPI I/O: 0.103s.

mpirun -n 8 ./diffusion 1.0 2.0 2560  | grep 'I/O'; check
Time taken by sequential I/O: 0.148s.
Time taken by parallel MPI I/O: 0.151s.

mpirun -n 8 ./diffusion 1.0 2.0 3072  | grep 'I/O'; check
Time taken by sequential I/O: 0.210s.
Time taken by parallel MPI I/O: 0.214s.

mpirun -n 8 ./diffusion 1.0 2.0 3584  | grep 'I/O'; check
Time taken by sequential I/O: 0.285s.
Time taken by parallel MPI I/O: 0.270s.

mpirun -n 8 ./diffusion 1.0 2.0 4096  | grep 'I/O'; check
Time taken by sequential I/O: 0.378s.
Time taken by parallel MPI I/O: 0.357s.

mpirun -n 8 ./diffusion 1.0 2.0 4608  | grep 'I/O'; check
Time taken by sequential I/O: 0.466s.
Time taken by parallel MPI I/O: 0.435s.

mpirun -n 8 ./diffusion 1.0 2.0 5120  | grep 'I/O'; check
Time taken by sequential I/O: 0.591s.
Time taken by parallel MPI I/O: 0.555s.

mpirun -n 8 ./diffusion 1.0 2.0 5632  | grep 'I/O'; check
Time taken by sequential I/O: 0.699s.
Time taken by parallel MPI I/O: 0.672s.

mpirun -n 8 ./diffusion 1.0 2.0 6144  | grep 'I/O'; check
Time taken by sequential I/O: 0.826s.
Time taken by parallel MPI I/O: 0.801s.

mpirun -n 8 ./diffusion 1.0 2.0 1024  | grep 'I/O'; check
Time taken by sequential I/O: 0.028s.
Time taken by parallel MPI I/O: 0.043s.

mpirun -n 8 ./diffusion 1.0 2.0 1536  | grep 'I/O'; check
Time taken by sequential I/O: 0.056s.
Time taken by parallel MPI I/O: 0.072s.

mpirun -n 8 ./diffusion 1.0 2.0 2048  | grep 'I/O'; check
Time taken by sequential I/O: 0.096s.
Time taken by parallel MPI I/O: 0.104s.

mpirun -n 8 ./diffusion 1.0 2.0 2560  | grep 'I/O'; check
Time taken by sequential I/O: 0.148s.
Time taken by parallel MPI I/O: 0.152s.

mpirun -n 8 ./diffusion 1.0 2.0 3072  | grep 'I/O'; check
Time taken by sequential I/O: 0.211s.
Time taken by parallel MPI I/O: 0.209s.

mpirun -n 8 ./diffusion 1.0 2.0 3584  | grep 'I/O'; check
Time taken by sequential I/O: 0.292s.
Time taken by parallel MPI I/O: 0.303s.

mpirun -n 8 ./diffusion 1.0 2.0 4096  | grep 'I/O'; check
Time taken by sequential I/O: 0.374s.
Time taken by parallel MPI I/O: 0.362s.

mpirun -n 8 ./diffusion 1.0 2.0 4608  | grep 'I/O'; check
Time taken by sequential I/O: 0.467s.
Time taken by parallel MPI I/O: 0.437s.

mpirun -n 8 ./diffusion 1.0 2.0 5120  | grep 'I/O'; check
Time taken by sequential I/O: 0.574s.
Time taken by parallel MPI I/O: 0.550s.

mpirun -n 8 ./diffusion 1.0 2.0 5632  | grep 'I/O'; check
Time taken by sequential I/O: 0.699s.
Time taken by parallel MPI I/O: 0.675s.

mpirun -n 8 ./diffusion 1.0 2.0 6144  | grep 'I/O'; check
Time taken by sequential I/O: 0.862s.
Time taken by parallel MPI I/O: 0.805s.

mpirun -n 8 ./diffusion 1.0 2.0 1024  | grep 'I/O'; check
Time taken by sequential I/O: 0.029s.
Time taken by parallel MPI I/O: 0.045s.

mpirun -n 8 ./diffusion 1.0 2.0 1536  | grep 'I/O'; check
Time taken by sequential I/O: 0.056s.
Time taken by parallel MPI I/O: 0.068s.

mpirun -n 8 ./diffusion 1.0 2.0 2048  | grep 'I/O'; check
Time taken by sequential I/O: 0.096s.
Time taken by parallel MPI I/O: 0.103s.

mpirun -n 8 ./diffusion 1.0 2.0 2560  | grep 'I/O'; check
Time taken by sequential I/O: 0.149s.
Time taken by parallel MPI I/O: 0.152s.

mpirun -n 8 ./diffusion 1.0 2.0 3072  | grep 'I/O'; check
Time taken by sequential I/O: 0.212s.
Time taken by parallel MPI I/O: 0.206s.

mpirun -n 8 ./diffusion 1.0 2.0 3584  | grep 'I/O'; check
Time taken by sequential I/O: 0.290s.
Time taken by parallel MPI I/O: 0.271s.

mpirun -n 8 ./diffusion 1.0 2.0 4096  | grep 'I/O'; check
Time taken by sequential I/O: 0.375s.
Time taken by parallel MPI I/O: 0.362s.

mpirun -n 8 ./diffusion 1.0 2.0 4608  | grep 'I/O'; check
Time taken by sequential I/O: 0.468s.
Time taken by parallel MPI I/O: 0.450s.

mpirun -n 8 ./diffusion 1.0 2.0 5120  | grep 'I/O'; check
Time taken by sequential I/O: 0.608s.
Time taken by parallel MPI I/O: 0.581s.

mpirun -n 8 ./diffusion 1.0 2.0 5632  | grep 'I/O'; check
Time taken by sequential I/O: 0.716s.
Time taken by parallel MPI I/O: 0.705s.

mpirun -n 8 ./diffusion 1.0 2.0 6144  | grep 'I/O'; check
Time taken by sequential I/O: 0.836s.
Time taken by parallel MPI I/O: 0.843s.

mpirun -n 8 ./diffusion 1.0 2.0 1024  | grep 'I/O'; check
Time taken by sequential I/O: 0.029s.
Time taken by parallel MPI I/O: 0.045s.

mpirun -n 8 ./diffusion 1.0 2.0 1536  | grep 'I/O'; check
Time taken by sequential I/O: 0.057s.
Time taken by parallel MPI I/O: 0.069s.

mpirun -n 8 ./diffusion 1.0 2.0 2048  | grep 'I/O'; check
Time taken by sequential I/O: 0.097s.
Time taken by parallel MPI I/O: 0.105s.

mpirun -n 8 ./diffusion 1.0 2.0 2560  | grep 'I/O'; check
Time taken by sequential I/O: 0.148s.
Time taken by parallel MPI I/O: 0.151s.

mpirun -n 8 ./diffusion 1.0 2.0 3072  | grep 'I/O'; check
Time taken by sequential I/O: 0.216s.
Time taken by parallel MPI I/O: 0.207s.

mpirun -n 8 ./diffusion 1.0 2.0 3584  | grep 'I/O'; check
Time taken by sequential I/O: 0.290s.
Time taken by parallel MPI I/O: 0.275s.

mpirun -n 8 ./diffusion 1.0 2.0 4096  | grep 'I/O'; check
Time taken by sequential I/O: 0.374s.
Time taken by parallel MPI I/O: 0.361s.

mpirun -n 8 ./diffusion 1.0 2.0 4608  | grep 'I/O'; check
Time taken by sequential I/O: 0.471s.
Time taken by parallel MPI I/O: 0.446s.

mpirun -n 8 ./diffusion 1.0 2.0 5120  | grep 'I/O'; check
Time taken by sequential I/O: 0.578s.
Time taken by parallel MPI I/O: 0.594s.

mpirun -n 8 ./diffusion 1.0 2.0 5632  | grep 'I/O'; check
Time taken by sequential I/O: 0.709s.
Time taken by parallel MPI I/O: 0.672s.

mpirun -n 8 ./diffusion 1.0 2.0 6144  | grep 'I/O'; check
Time taken by sequential I/O: 0.842s.
Time taken by parallel MPI I/O: 0.823s.

